{
   "start_id":"d001",
   "dialogues":{
      "d001":{
         "text":"Hello, I am the local gravekeeper. I take care of the cemetry.",
         "replies":[
            "r001"
         ]
      },
      "d002":{
         "text":"I'm afraid not. The graveyard is not for tourists.<span onclick='saveToJournal(\"Wizards are not allowed to do experiments in the graveyard\", \"Gravekeeper\", \"tt002\", \"miscTable\")'> Nor for that matter Mages or Sorcerors who want to do experiments!</span> The nerve of some people...",
         "replies":[
         ]
      }
   },
   "replies":{
      "r001":{
         "text":"So can I visit the graveyard?",
         "goto":"d002"
      }
   }
}
