{
    "levelText": "You are walking around the Town Centre.",

    "floor" : {
        "x":-800,
        "y":-450,
        "width":1650,
        "height":750,
        "color":"silver"
        },
    
    "objects": {
        "stage0": "levels/town/json/objects0.json"
    },
    
    "obstacles": {
        "stage0": "levels/town/json/obstacles0.json"
    }
}
