{
   "start_id":"d001",
   "dialogues":{
      "d001":{
         "text":"Beyond the door you see a bustling town",
         "replies":[
            "r001"
         ]
      }
   },
   "replies":{
      "r001":{
         "text":"To the town",
         "level":"levels/town/json/index.json",
         "stage":"stage0"
      }
   }
}
