{
    "walltopleft":{
        "x":-550,
        "y":-100,
        "width":450,
        "height":20,
        "color":"red"
    },
        
    "walltopright":{
        "x":100,
        "y":-100,
        "width":450,
        "height":20,
        "color":"red"
    },
        
    "door":{
        "x":-100,
        "y":-100,
        "width":200,
        "height":20,
        "color":"green"
    },
        
    "wallbot":{
        "x":-550,
        "y":630,
        "width":1100,
        "height":20,
        "color":"red"
    },
    
    "wallleft":{
        "x":-550,
        "y":-80,
        "width":20,
        "height":710,
        "color":"red"
    },

    "wallright":{
        "x":530,
        "y":-80,
        "width":20,
        "height":710,
        "color":"red"
    },
    
    "entranceleft":{
        "x":-170,
        "y":-80,
        "width":20,
        "height":180,
        "color":"red"
    },
        
    "entranceright":{
        "x":150,
        "y":-80,
        "width":20,
        "height":180,
        "color":"red"
    },
        
    "ritualbotleft":{
        "x":-530,
        "y":80,
        "width":100,
        "height":20,
        "color":"red"
    },
    
    "ritualbotright":{
        "x":-270,
        "y":80,
        "width":100,
        "height":20,
        "color":"red"
    },
            
    "classrmbotleft":{
        "x":170,
        "y":80,
        "width":100,
        "height":20,
        "color":"red"
    },
    
    "classrmbotright":{
        "x":430,
        "y":80,
        "width":100,
        "height":20,
        "color":"red"
    },
    
    "newsrmtop":{
        "x":-530,
        "y":200,
        "width":230,
        "height":20,
        "color":"red"
    },
    
    "newsrmright":{
        "x":-320,
        "y":330,
        "width":20,
        "height":300,
        "color":"red"
    },
                                
    "newsrmTable" : {
        "x":-460,
        "y":290,
        "width":70,
        "height":270,
        "color":"brown"
        },
            
    "comrmtop":{
        "x":300,
        "y":200,
        "width":230,
        "height":20,
        "color":"red"
    },
    
    "comrmleft":{
        "x":300,
        "y":330,
        "width":20,
        "height":300,
        "color":"red"
    },
                
    "computerTable" : {
        "x":460,
        "y":240,
        "width":70,
        "height":370,
        "color":"brown"
        },
            
    "pressrmtopleft":{
        "x":-200,
        "y":200,
        "width":150,
        "height":20,
        "color":"red"
    },
    
    "pressrmtopright":{
        "x":50,
        "y":200,
        "width":150,
        "height":20,
        "color":"red"
    },
    
    "pressrmleft":{
        "x":-200,
        "y":220,
        "width":20,
        "height":410,
        "color":"red"
    },
    
    "pressrmright":{
        "x":180,
        "y":220,
        "width":20,
        "height":410,
        "color":"red"
    },
    
    "hallPodium" : {
        "x":-100,
        "y":550,
        "width":200,
        "height":80,
        "color":"yellow"
    }
}
