{
   "start_id":"d001",
   "dialogues":{
      "d001":{
         "text":"There is some sort of door here",
         "replies":[
            "r001", "r002"
         ]
      },
      "d002":{
         "text":"The door remains locked",
         "replies":[
            "r001","r002"
         ]
      }
   },
   "replies":{
      "r001":{
         "text":"Open Sesame",
         "goto":"d002"
      },
      "r002":{
         "text":"password is goodbye",
         "level":"d001",
         "stage":"stage1"
      }
   }
}
