{
   "start_id":"d001",
   "dialogues":{
      "d001":{
         "text":"You stand upon one of the strange symbols on the ground. Could the colours be significant?",
         "replies":[
            "r001", "r002"
         ]
      },
      "d002":{
         "text":"Nothing is happening",
         "replies":[
            "r002"
         ]
      }
   },
   "replies":{
      "r001":{
         "text":"Open Sesame",
         "goto":"d002"
      },
      "r002":{
         "text":"Down with Sorcerors",
         "goto":"d002"
      }
   }
}
