{
   "start_id":"d001",
   "dialogues":{
      "d001":{
         "text":"Hello! I'm Robert Tables, a new student here. I'm really looking forward to getting started. I wanted to see lots of magic being done, <span onclick='saveToJournal(\"Sorcerors prefer to work in private\", \"Novice Bob\", \"dg005\", \"WorldTable\")'> but Sorcerors seem to prefer doing their work in private.</span>",
         "replies":[
         ]
      }
   },
   "replies":{
      }
   }
}
